<?xml version="1.0" encoding="UTF-8"?>
<svg width="1800px" height="212px" viewBox="0 0 1800 212" version="1.1" xmlns="http://www.w3.org/2000/svg" xmlns:xlink="http://www.w3.org/1999/xlink">
    <!-- Generator: Sketch 42 (36781) - http://www.bohemiancoding.com/sketch -->
    <title>Group</title>
    <desc>Created with Sketch.</desc>
    <defs></defs>
    <g id="Page-1" stroke="none" stroke-width="1" fill="none" fill-rule="evenodd">
        <g id="angles-slice" transform="translate(0.000000, -1786.000000)">
            <g id="Group" transform="translate(0.000000, 1786.000000)">
                <polygon id="Path-4" fill="#C9BAD6" points="0 0.211930926 0 211.211931 1268.15558 104.211931"></polygon>
                <polygon id="Path-5" fill="#290C42" points="1799.71669 57.2119309 1799.71669 149.217366 1264 104.211931"></polygon>
            </g>
            <polygon id="Path-9" fill="#FFFFFF" points="1266 1890 1799 1843 1799 1787.91673 2 1786"></polygon>
        </g>
    </g>
</svg>