<?xml version="1.0" encoding="UTF-8"?>
<svg width="1800px" height="81px" viewBox="0 0 1800 81" version="1.1" xmlns="http://www.w3.org/2000/svg" xmlns:xlink="http://www.w3.org/1999/xlink">
    <!-- Generator: Sketch 42 (36781) - http://www.bohemiancoding.com/sketch -->
    <title>Path 6</title>
    <desc>Created with Sketch.</desc>
    <defs></defs>
    <g id="Page-1" stroke="none" stroke-width="1" fill="none" fill-rule="evenodd">
        <g id="angles-slice" transform="translate(0.000000, -2432.000000)" fill="#FFFFFF">
            <polygon id="Path-6" points="0 2432.00358 0 2512.15968 1800 2512.15968"></polygon>
        </g>
    </g>
</svg>